[
  {
    "index": [
      {
        "x": 2,
        "y": 0
      }
    ],
    "type": "field",
    "size": {
      "x": 1,
      "y": 1
    },
    "field": "firstName"
  },
  {
    "index": [
      {
        "x": 0,
        "y": 0
      },
      {
        "x": 0,
        "y": 1
      },
      {
        "x": 1,
        "y": 0
      },
      {
        "x": 1,
        "y": 1
      }
    ],
    "type": "image",
    "size": {
      "x": 2,
      "y": 2
    }
  },
  {
    "index": [
      {
        "x": 2,
        "y": 1
      }
    ],
    "type": "field",
    "size": {
      "x": 1,
      "y": 1
    },
    "field": "lastName"
  },
  {
    "index": [
      {
        "x": 3,
        "y": 0
      }
    ],
    "type": "field",
    "size": {
      "x": 1,
      "y": 1
    },
    "field": "dateBirth"
  },
  {
    "index": [
      {
        "x": 3,
        "y": 1
      }
    ],
    "type": "field",
    "size": {
      "x": 1,
      "y": 1
    },
    "field": "phone"
  },
  {
    "index": [
      {
        "x": 3,
        "y": 2
      }
    ],
    "type": "field",
    "size": {
      "x": 1,
      "y": 1
    },
    "field": "email"
  },
  {
    "index": [
      {
        "x": 0,
        "y": 2
      },
      {
        "x": 0,
        "y": 3
      },
      {
        "x": 0,
        "y": 4
      },
      {
        "x": 1,
        "y": 2
      },
      {
        "x": 1,
        "y": 3
      },
      {
        "x": 1,
        "y": 4
      },
      {
        "x": 2,
        "y": 2
      },
      {
        "x": 2,
        "y": 3
      },
      {
        "x": 2,
        "y": 4
      }
    ],
    "type": "table",
    "size": {
      "x": 3,
      "y": 3
    }
  }
]